﻿  Home worck №7.cpp
  Создание кода
  Previous IPDB not found, fall back to full compilation.
  All 21 functions were compiled because no usable IPDB/IOBJ from previous compilation was found.
  Создание кода завершено
  Home worck №7.vcxproj -> E:\Home worck №7\Release\Home worck №7.exe
